{
  "Sensors": {
    "1001": {
      "2001": {
        "Current": 0.2,
        "Timestamp": 1479933965576,
        "Voltage": 4
      },
      "2002": {
        "Current": 0.1,
        "Timestamp": 1479937565576,
        "Voltage": 4.5
      },
      "2003": {
        "Current": 0.15,
        "Timestamp": 1479941165576,
        "Voltage": 4.2
      }
    },
    "1002": {
      "2001": {
        "Current": 0.1,
        "Timestamp": 1479933965576,
        "Voltage": 3.5
      },
      "2002": {
        "Current": 0.15,
        "Timestamp": 1479937565576,
        "Voltage": 4.5
      },
      "2003": {
        "Current": 0.05,
        "Timestamp": 1479941165576,
        "Voltage": 2
      }
    },
    "1003": {
      "2001": {
        "Current": 0.35,
        "Timestamp": 1479933965576,
        "Voltage": 4
      },
      "2002": {
        "Current": 0.25,
        "Timestamp": 1479937565576,
        "Voltage": 4.0
      },
      "2003": {
        "Current": 0.1,
        "Timestamp": 1479941165576,
        "Voltage": 2.3
      }
    }
  }
}
